<svg id="SvgjsSvg1053" width="300" height="188" xmlns="http://www.w3.org/2000/svg" version="1.1" xmlns:xlink="http://www.w3.org/1999/xlink" xmlns:svgjs="http://svgjs.dev" class="apexcharts-svg apexcharts-zoomable" xmlns:data="ApexChartsNS" transform="translate(0, 0)" style="background: transparent;">
  <g id="SvgjsG1055" class="apexcharts-inner apexcharts-graphical" transform="translate(22, 30)">
    <defs id="SvgjsDefs1054">
      <clipPath id="gridRectMaskkyhxp5p3">
        <rect id="SvgjsRect1060" width="274" height="145" x="-3" y="-1" rx="0" ry="0" opacity="1" stroke-width="0" stroke="none" stroke-dasharray="0" fill="#fff"></rect>
      </clipPath>
      <clipPath id="forecastMaskkyhxp5p3"></clipPath>
      <clipPath id="nonForecastMaskkyhxp5p3"></clipPath>
      <clipPath id="gridRectMarkerMaskkyhxp5p3">
        <rect id="SvgjsRect1061" width="272" height="147" x="-2" y="-2" rx="0" ry="0" opacity="1" stroke-width="0" stroke="none" stroke-dasharray="0" fill="#fff"></rect>
      </clipPath>
      <linearGradient id="SvgjsLinearGradient1066" x1="0" y1="0" x2="0" y2="1">
        <stop id="SvgjsStop1067" stop-opacity="0.65" stop-color="rgba(0,143,251,0.65)" offset="0"></stop>
        <stop id="SvgjsStop1068" stop-opacity="0.5" stop-color="rgba(128,199,253,0.5)" offset="1"></stop>
        <stop id="SvgjsStop1069" stop-opacity="0.5" stop-color="rgba(128,199,253,0.5)" offset="1"></stop>
      </linearGradient>
      <linearGradient id="SvgjsLinearGradient1075" x1="0" y1="0" x2="0" y2="1">
        <stop id="SvgjsStop1076" stop-opacity="0.65" stop-color="rgba(0,227,150,0.65)" offset="0"></stop>
        <stop id="SvgjsStop1077" stop-opacity="0.5" stop-color="rgba(128,241,203,0.5)" offset="1"></stop>
        <stop id="SvgjsStop1078" stop-opacity="0.5" stop-color="rgba(128,241,203,0.5)" offset="1"></stop>
      </linearGradient>
    </defs>
    <line id="SvgjsLine1059" x1="0" y1="0" x2="0" y2="143" stroke="#b6b6b6" stroke-dasharray="3" stroke-linecap="butt" class="apexcharts-xcrosshairs" x="0" y="0" width="1" height="143" fill="#b1b9c4" filter="none" fill-opacity="0.9" stroke-width="1"></line>
    <g id="SvgjsG1081" class="apexcharts-xaxis" transform="translate(0, 0)">
      <g id="SvgjsG1082" class="apexcharts-xaxis-texts-g" transform="translate(0, -4)"></g>
    </g>
    <g id="SvgjsG1095" class="apexcharts-grid">
      <g id="SvgjsG1096" class="apexcharts-gridlines-horizontal">
        <line id="SvgjsLine1098" x1="0" y1="0" x2="268" y2="0" stroke="#f1f1f1" stroke-dasharray="0" stroke-linecap="butt" class="apexcharts-gridline"></line>
        <line id="SvgjsLine1099" x1="0" y1="28.6" x2="268" y2="28.6" stroke="#f1f1f1" stroke-dasharray="0" stroke-linecap="butt" class="apexcharts-gridline"></line>
        <line id="SvgjsLine1100" x1="0" y1="57.2" x2="268" y2="57.2" stroke="#f1f1f1" stroke-dasharray="0" stroke-linecap="butt" class="apexcharts-gridline"></line>
        <line id="SvgjsLine1101" x1="0" y1="85.80000000000001" x2="268" y2="85.80000000000001" stroke="#f1f1f1" stroke-dasharray="0" stroke-linecap="butt" class="apexcharts-gridline"></line>
        <line id="SvgjsLine1102" x1="0" y1="114.4" x2="268" y2="114.4" stroke="#f1f1f1" stroke-dasharray="0" stroke-linecap="butt" class="apexcharts-gridline"></line>
        <line id="SvgjsLine1103" x1="0" y1="143" x2="268" y2="143" stroke="#f1f1f1" stroke-dasharray="0" stroke-linecap="butt" class="apexcharts-gridline"></line>
      </g>
      <g id="SvgjsG1097" class="apexcharts-gridlines-vertical"></g>
      <line id="SvgjsLine1105" x1="0" y1="143" x2="268" y2="143" stroke="transparent" stroke-dasharray="0" stroke-linecap="butt"></line>
      <line id="SvgjsLine1104" x1="0" y1="1" x2="0" y2="143" stroke="transparent" stroke-dasharray="0" stroke-linecap="butt"></line>
    </g>
    <g id="SvgjsG1062" class="apexcharts-area-series apexcharts-plot-series">
      <g id="SvgjsG1072" class="apexcharts-series" seriesName="Laptops" data:longestSeries="true" rel="2" data:realIndex="1">
        <path id="SvgjsPath1079" d="M 0 143L 0 125.84C 10.422222222222222 125.84 19.355555555555554 125.83999999999999 29.77777777777778 125.83999999999999C 40.2 125.83999999999999 49.13333333333333 91.52000000000001 59.55555555555556 91.52000000000001C 69.97777777777777 91.52000000000001 78.91111111111111 97.24 89.33333333333333 97.24C 99.75555555555556 97.24 108.6888888888889 25.740000000000002 119.11111111111111 25.740000000000002C 129.53333333333333 25.740000000000002 138.46666666666667 42.89999999999999 148.88888888888889 42.89999999999999C 159.3111111111111 42.89999999999999 168.24444444444444 5.719999999999999 178.66666666666666 5.719999999999999C 189.08888888888887 5.719999999999999 198.02222222222224 97.24 208.44444444444446 97.24C 218.86666666666667 97.24 227.8 77.22 238.22222222222223 77.22C 248.64444444444445 77.22 257.5777777777778 108.68 268 108.68C 268 108.68 268 108.68 268 143M 268 108.68z" fill="url(#SvgjsLinearGradient1075)" fill-opacity="1" stroke-opacity="1" stroke-linecap="butt" stroke-width="0" stroke-dasharray="0" class="apexcharts-area" index="1" clip-path="url(#gridRectMaskkyhxp5p3)" pathTo="M 0 143L 0 125.84C 10.422222222222222 125.84 19.355555555555554 125.83999999999999 29.77777777777778 125.83999999999999C 40.2 125.83999999999999 49.13333333333333 91.52000000000001 59.55555555555556 91.52000000000001C 69.97777777777777 91.52000000000001 78.91111111111111 97.24 89.33333333333333 97.24C 99.75555555555556 97.24 108.6888888888889 25.740000000000002 119.11111111111111 25.740000000000002C 129.53333333333333 25.740000000000002 138.46666666666667 42.89999999999999 148.88888888888889 42.89999999999999C 159.3111111111111 42.89999999999999 168.24444444444444 5.719999999999999 178.66666666666666 5.719999999999999C 189.08888888888887 5.719999999999999 198.02222222222224 97.24 208.44444444444446 97.24C 218.86666666666667 97.24 227.8 77.22 238.22222222222223 77.22C 248.64444444444445 77.22 257.5777777777778 108.68 268 108.68C 268 108.68 268 108.68 268 143M 268 108.68z" pathFrom="M -1 143L -1 143L 29.77777777777778 143L 59.55555555555556 143L 89.33333333333333 143L 119.11111111111111 143L 148.88888888888889 143L 178.66666666666666 143L 208.44444444444446 143L 238.22222222222223 143L 268 143"></path>
        <path id="SvgjsPath1080" d="M 0 125.84C 10.422222222222222 125.84 19.355555555555554 125.83999999999999 29.77777777777778 125.83999999999999C 40.2 125.83999999999999 49.13333333333333 91.52000000000001 59.55555555555556 91.52000000000001C 69.97777777777777 91.52000000000001 78.91111111111111 97.24 89.33333333333333 97.24C 99.75555555555556 97.24 108.6888888888889 25.740000000000002 119.11111111111111 25.740000000000002C 129.53333333333333 25.740000000000002 138.46666666666667 42.89999999999999 148.88888888888889 42.89999999999999C 159.3111111111111 42.89999999999999 168.24444444444444 5.719999999999999 178.66666666666666 5.719999999999999C 189.08888888888887 5.719999999999999 198.02222222222224 97.24 208.44444444444446 97.24C 218.86666666666667 97.24 227.8 77.22 238.22222222222223 77.22C 248.64444444444445 77.22 257.5777777777778 108.68 268 108.68" fill="none" fill-opacity="1" stroke="#00e396" stroke-opacity="1" stroke-linecap="butt" stroke-width="2" stroke-dasharray="0" class="apexcharts-area" index="1" clip-path="url(#gridRectMaskkyhxp5p3)" pathTo="M 0 125.84C 10.422222222222222 125.84 19.355555555555554 125.83999999999999 29.77777777777778 125.83999999999999C 40.2 125.83999999999999 49.13333333333333 91.52000000000001 59.55555555555556 91.52000000000001C 69.97777777777777 91.52000000000001 78.91111111111111 97.24 89.33333333333333 97.24C 99.75555555555556 97.24 108.6888888888889 25.740000000000002 119.11111111111111 25.740000000000002C 129.53333333333333 25.740000000000002 138.46666666666667 42.89999999999999 148.88888888888889 42.89999999999999C 159.3111111111111 42.89999999999999 168.24444444444444 5.719999999999999 178.66666666666666 5.719999999999999C 189.08888888888887 5.719999999999999 198.02222222222224 97.24 208.44444444444446 97.24C 218.86666666666667 97.24 227.8 77.22 238.22222222222223 77.22C 248.64444444444445 77.22 257.5777777777778 108.68 268 108.68" pathFrom="M -1 143L -1 143L 29.77777777777778 143L 59.55555555555556 143L 89.33333333333333 143L 119.11111111111111 143L 148.88888888888889 143L 178.66666666666666 143L 208.44444444444446 143L 238.22222222222223 143L 268 143"></path>
        <g id="SvgjsG1073" class="apexcharts-series-markers-wrap" data:realIndex="1">
          <g class="apexcharts-series-markers">
            <circle id="SvgjsCircle1112" r="0" cx="0" cy="0" class="apexcharts-marker w4iykcbfw no-pointer-events" stroke="#ffffff" fill="#00e396" fill-opacity="1" stroke-width="2" stroke-opacity="0.9" default-marker-size="0"></circle>
          </g>
        </g>
      </g>
      <g id="SvgjsG1063" class="apexcharts-series" seriesName="Desktops" data:longestSeries="true" rel="1" data:realIndex="0">
        <path id="SvgjsPath1070" d="M 0 143L 0 131.56C 10.422222222222222 131.56 19.355555555555554 134.42 29.77777777777778 134.42C 40.2 134.42 49.13333333333333 114.4 59.55555555555556 114.4C 69.97777777777777 114.4 78.91111111111111 117.25999999999999 89.33333333333333 117.25999999999999C 99.75555555555556 117.25999999999999 108.6888888888889 60.06 119.11111111111111 60.06C 129.53333333333333 60.06 138.46666666666667 88.66 148.88888888888889 88.66C 159.3111111111111 88.66 168.24444444444444 71.5 178.66666666666666 71.5C 189.08888888888887 71.5 198.02222222222224 117.25999999999999 208.44444444444446 117.25999999999999C 218.86666666666667 117.25999999999999 227.8 108.68 238.22222222222223 108.68C 248.64444444444445 108.68 257.5777777777778 122.98 268 122.98C 268 122.98 268 122.98 268 143M 268 122.98z" fill="url(#SvgjsLinearGradient1066)" fill-opacity="1" stroke-opacity="1" stroke-linecap="butt" stroke-width="0" stroke-dasharray="0" class="apexcharts-area" index="0" clip-path="url(#gridRectMaskkyhxp5p3)" pathTo="M 0 143L 0 131.56C 10.422222222222222 131.56 19.355555555555554 134.42 29.77777777777778 134.42C 40.2 134.42 49.13333333333333 114.4 59.55555555555556 114.4C 69.97777777777777 114.4 78.91111111111111 117.25999999999999 89.33333333333333 117.25999999999999C 99.75555555555556 117.25999999999999 108.6888888888889 60.06 119.11111111111111 60.06C 129.53333333333333 60.06 138.46666666666667 88.66 148.88888888888889 88.66C 159.3111111111111 88.66 168.24444444444444 71.5 178.66666666666666 71.5C 189.08888888888887 71.5 198.02222222222224 117.25999999999999 208.44444444444446 117.25999999999999C 218.86666666666667 117.25999999999999 227.8 108.68 238.22222222222223 108.68C 248.64444444444445 108.68 257.5777777777778 122.98 268 122.98C 268 122.98 268 122.98 268 143M 268 122.98z" pathFrom="M -1 143L -1 143L 29.77777777777778 143L 59.55555555555556 143L 89.33333333333333 143L 119.11111111111111 143L 148.88888888888889 143L 178.66666666666666 143L 208.44444444444446 143L 238.22222222222223 143L 268 143"></path>
        <path id="SvgjsPath1071" d="M 0 131.56C 10.422222222222222 131.56 19.355555555555554 134.42 29.77777777777778 134.42C 40.2 134.42 49.13333333333333 114.4 59.55555555555556 114.4C 69.97777777777777 114.4 78.91111111111111 117.25999999999999 89.33333333333333 117.25999999999999C 99.75555555555556 117.25999999999999 108.6888888888889 60.06 119.11111111111111 60.06C 129.53333333333333 60.06 138.46666666666667 88.66 148.88888888888889 88.66C 159.3111111111111 88.66 168.24444444444444 71.5 178.66666666666666 71.5C 189.08888888888887 71.5 198.02222222222224 117.25999999999999 208.44444444444446 117.25999999999999C 218.86666666666667 117.25999999999999 227.8 108.68 238.22222222222223 108.68C 248.64444444444445 108.68 257.5777777777778 122.98 268 122.98" fill="none" fill-opacity="1" stroke="#008ffb" stroke-opacity="1" stroke-linecap="butt" stroke-width="2" stroke-dasharray="0" class="apexcharts-area" index="0" clip-path="url(#gridRectMaskkyhxp5p3)" pathTo="M 0 131.56C 10.422222222222222 131.56 19.355555555555554 134.42 29.77777777777778 134.42C 40.2 134.42 49.13333333333333 114.4 59.55555555555556 114.4C 69.97777777777777 114.4 78.91111111111111 117.25999999999999 89.33333333333333 117.25999999999999C 99.75555555555556 117.25999999999999 108.6888888888889 60.06 119.11111111111111 60.06C 129.53333333333333 60.06 138.46666666666667 88.66 148.88888888888889 88.66C 159.3111111111111 88.66 168.24444444444444 71.5 178.66666666666666 71.5C 189.08888888888887 71.5 198.02222222222224 117.25999999999999 208.44444444444446 117.25999999999999C 218.86666666666667 117.25999999999999 227.8 108.68 238.22222222222223 108.68C 248.64444444444445 108.68 257.5777777777778 122.98 268 122.98" pathFrom="M -1 143L -1 143L 29.77777777777778 143L 59.55555555555556 143L 89.33333333333333 143L 119.11111111111111 143L 148.88888888888889 143L 178.66666666666666 143L 208.44444444444446 143L 238.22222222222223 143L 268 143"></path>
        <g id="SvgjsG1064" class="apexcharts-series-markers-wrap" data:realIndex="0">
          <g class="apexcharts-series-markers">
            <circle id="SvgjsCircle1111" r="0" cx="0" cy="0" class="apexcharts-marker w8agjjnje no-pointer-events" stroke="#ffffff" fill="#008ffb" fill-opacity="1" stroke-width="2" stroke-opacity="0.9" default-marker-size="0"></circle>
          </g>
        </g>
      </g>
      <g id="SvgjsG1074" class="apexcharts-datalabels" data:realIndex="1"></g>
      <g id="SvgjsG1065" class="apexcharts-datalabels" data:realIndex="0"></g>
    </g>
    <line id="SvgjsLine1106" x1="0" y1="0" x2="268" y2="0" stroke="#b6b6b6" stroke-dasharray="0" stroke-width="1" stroke-linecap="butt" class="apexcharts-ycrosshairs"></line>
    <line id="SvgjsLine1107" x1="0" y1="0" x2="268" y2="0" stroke-dasharray="0" stroke-width="0" stroke-linecap="butt" class="apexcharts-ycrosshairs-hidden"></line>
    <g id="SvgjsG1108" class="apexcharts-yaxis-annotations"></g>
    <g id="SvgjsG1109" class="apexcharts-xaxis-annotations"></g>
    <g id="SvgjsG1110" class="apexcharts-point-annotations"></g>
    <rect id="SvgjsRect1113" width="0" height="0" x="0" y="0" rx="0" ry="0" opacity="1" stroke-width="0" stroke="none" stroke-dasharray="0" fill="#fefefe" class="apexcharts-zoom-rect"></rect>
    <rect id="SvgjsRect1114" width="0" height="0" x="0" y="0" rx="0" ry="0" opacity="1" stroke-width="0" stroke="none" stroke-dasharray="0" fill="#fefefe" class="apexcharts-selection-rect"></rect>
  </g>
  <rect id="SvgjsRect1058" width="0" height="0" x="0" y="0" rx="0" ry="0" opacity="1" stroke-width="0" stroke="none" stroke-dasharray="0" fill="#fefefe"></rect>
  <g id="SvgjsG1093" class="apexcharts-yaxis" rel="0" transform="translate(-8, 0)">
    <g id="SvgjsG1094" class="apexcharts-yaxis-texts-g"></g>
  </g>
  <g id="SvgjsG1056" class="apexcharts-annotations"></g>
</svg>
